<?xml version="1.0" encoding="UTF-8" standalone="no"?>
<!-- Created with Inkscape (http://www.inkscape.org/) -->

<svg
   xmlns:dc="http://purl.org/dc/elements/1.1/"
   xmlns:cc="http://creativecommons.org/ns#"
   xmlns:rdf="http://www.w3.org/1999/02/22-rdf-syntax-ns#"
   xmlns:svg="http://www.w3.org/2000/svg"
   xmlns="http://www.w3.org/2000/svg"
   xmlns:sodipodi="http://sodipodi.sourceforge.net/DTD/sodipodi-0.dtd"
   xmlns:inkscape="http://www.inkscape.org/namespaces/inkscape"
   width="1434.85"
   height="1307.0858"
   id="svg2112"
   sodipodi:version="0.32"
   inkscape:version="0.47 r22583"
   sodipodi:docname="2010 Dimos Leonidiou.svg"
   version="1.0"
   inkscape:export-filename="F:\wiki\images\nomoidimoi\dimoi\arcadia\Dimos Tripoleos.png"
   inkscape:export-xdpi="58.941235"
   inkscape:export-ydpi="58.941235">
  <defs
     id="defs2114">
    <inkscape:perspective
       sodipodi:type="inkscape:persp3d"
       inkscape:vp_x="0 : 347.745 : 1"
       inkscape:vp_y="0 : 1000 : 0"
       inkscape:vp_z="763.47229 : 347.745 : 1"
       inkscape:persp3d-origin="381.73615 : 231.83 : 1"
       id="perspective87" />
    <inkscape:perspective
       id="perspective4073"
       inkscape:persp3d-origin="0.5 : 0.33333333 : 1"
       inkscape:vp_z="1 : 0.5 : 1"
       inkscape:vp_y="0 : 1000 : 0"
       inkscape:vp_x="0 : 0.5 : 1"
       sodipodi:type="inkscape:persp3d" />
  </defs>
  <sodipodi:namedview
     id="base"
     pagecolor="#ffffff"
     bordercolor="#666666"
     borderopacity="1.0"
     gridtolerance="10000"
     guidetolerance="10"
     objecttolerance="10"
     inkscape:pageopacity="0.0"
     inkscape:pageshadow="2"
     inkscape:zoom="0.175"
     inkscape:cx="693.72145"
     inkscape:cy="563.68414"
     inkscape:document-units="px"
     inkscape:current-layer="layer2"
     inkscape:window-width="1417"
     inkscape:window-height="832"
     inkscape:window-x="-4"
     inkscape:window-y="0"
     showguides="true"
     inkscape:guide-bbox="true"
     showgrid="false"
     inkscape:window-maximized="0" />
  <metadata
     id="metadata2117">
    <rdf:RDF>
      <cc:Work
         rdf:about="">
        <dc:format>image/svg+xml</dc:format>
        <dc:type
           rdf:resource="http://purl.org/dc/dcmitype/StillImage" />
        <dc:title></dc:title>
      </cc:Work>
    </rdf:RDF>
  </metadata>
  <g
     inkscape:label="fonto"
     inkscape:groupmode="layer"
     id="layer1"
     style="display:inline"
     transform="translate(1345.2571,251.93315)">
    <rect
       style="fill:#ffffd0;fill-opacity:1;stroke:none"
       id="rect2888"
       width="1434.85"
       height="1307.0858"
       x="-1345.2571"
       y="-251.93315" />
    <path
       style="fill:#9ec7f3;fill-opacity:1;stroke:none"
       d="m -1022.9443,931.38868 -21.5542,4.93335 -24.3144,6.93019 -25.7239,8.33973 -20.8492,11.15878 -23.6097,12.50957 -13.2144,9.0445 -5.5793,6.2254 2.1143,5.5794 -2.1143,5.5794 -0.7048,10.3953 0.7048,7.635 4.8745,2.1142 4.17,1.3508 -2.7604,7.6937 -2.1143,9.6906 2.6429,14.5651 235.97891,0 -4.34605,-14.5651 -5.57948,-6.9302 0,-1.4096 2.81906,-1.3508 -4.87453,-18.1477 6.28406,-9.6905 4.81589,-7.6349 0,-15.27 6.98902,-6.2841 -1.40953,-28.48428 -15.26991,-6.28416 -18.08898,-4.16986 -6.93019,-0.70476 -13.21444,3.46509 -6.98883,0 -20.8494,-5.52066 -31.3032,-0.76349 z"
       id="rect3869" />
    <path
       style="fill:none;stroke:#333333;stroke-width:2;stroke-linecap:butt;stroke-linejoin:miter;stroke-miterlimit:4;stroke-opacity:1;stroke-dasharray:none;display:inline"
       d="m -1150.8425,1055.9029 -2.7527,-15.3137 2.0645,-9.7217 2.7959,-7.6568 -4.1722,-1.3765 -4.8606,-2.1078 -0.7311,-7.6568 0.7311,-10.4099 2.0647,-5.54905 -2.0647,-5.59208 5.5487,-6.23732 13.205,-9.03338 23.6572,-12.51763 20.8182,-11.14113 25.7217,-8.3451 24.3454,-6.92561 21.5494,-4.90379 31.27038,0.73128 20.86124,5.54902 6.96815,0 13.20486,-3.48424 6.96815,0.68821 18.06548,4.1726 15.26954,6.28032 1.41949,28.47656 -6.96815,6.28034 0,15.27067 -4.86044,7.65683 -6.23689,9.7216 4.86044,18.1097 -2.79576,1.3766 0,1.3765 5.54867,6.9686 4.74617,15.8873"
       id="path3036" />
    <path
       style="fill:#9ec7f3;fill-opacity:1;stroke:none"
       d="m 45.009849,-251.91215 2.819061,1.58572 0.763496,-1.58572 -3.582557,0 z"
       id="path3046" />
    <path
       style="fill:#9ec7f3;fill-opacity:1;stroke:none"
       d="m 50.592406,-251.91215 -0.411113,1.76191 -0.352383,-0.1761 -3.641287,7.28258 -3.523826,3.93494 -3.465096,2.23175 -0.880956,3.4651 -3.523826,1.76191 -4.404783,1.76191 -2.173026,0.41112 -1.761913,2.17302 -3.053983,0.46985 -0.880957,5.28574 1.3508,5.22701 4.346053,6.16669 2.642869,2.17303 2.173026,1.3508 -0.880956,2.17302 -4.404783,3.05399 0,8.33972 4.874626,7.86988 -3.523826,6.98892 6.166696,4.81589 9.573061,2.64287 13.155618,-5.69685 10.512748,0 0,4.8159 2.642871,0 3.52382,-3.52383 4.8159,0.46984 1.76191,2.64287 4.40479,0 2.64287,2.17303 2.58413,-0.88096 0.70477,0.88096 0,-82.04642 -40.935114,0 -0.05864,0 z"
       id="path3044" />
    <path
       id="path1928"
       style="fill:none;stroke:#333333;stroke-width:4;stroke-linecap:butt;stroke-linejoin:miter;stroke-miterlimit:4;stroke-opacity:1;stroke-dasharray:none;display:inline"
       d="M 90.535578,-10.713205 86.536534,-6.3176125 84.125917,3.2966069 72.100593,18.950871 58.856118,9.3089497 46.830793,5.7070919 23.971592,11.719435 16.739761,10.528024 7.1250343,-0.30525088 -3.7088424,0.91384263 -18.144784,6.9261854 l -6.012662,-2.410485 -2.410598,-7.2314551 -7.20411,-12.0246853 0,-8.422828 13.244456,-12.024705 -12.053008,0 -14.435941,-3.601876 -12.025344,-13.243761 -6.012643,0 -8.423279,7.231437 -6.012662,-3.62956 -15.62739,0 -10.833895,10.833275 -8.42324,4.82097 -30.06333,2.410485 -14.43594,4.79325 -13.2445,-6.012343 -9.6147,-1.191392 -21.66776,6.012362 -6.01268,-3.601877 -30.06331,-15.654264 -6.01264,-8.422828 -3.62979,-9.6142 1.21917,-21.638943 -12.02534,7.203753 -7.23182,-1.191391 -6.01266,-10.833313 -9.61471,1.191391 -6.01268,8.422828 -14.43594,0 -6.01266,7.231437 -10.83388,4.793268 -12.02532,-1.191392 -12.02533,-8.422828 -10.83387,-8.422846 -19.25716,-2.410467 -13.21677,-1.191391 1.19145,-10.833291 -3.60207,-2.41049 -8.42326,9.641923 -3.60206,1.191373 -10.8339,-10.833296 -20.44858,-6.01236 -15.65509,4.82097 -14.43593,10.833313 -2.41061,1.191373 -6.01267,-6.012343 -3.60204,-9.614203 8.42324,-33.69133 6.01268,-9.61422 14.43592,-6.01234 4.82122,-6.04006 -3.60205,-9.61422 2.3829,-14.43517 -12.02533,12.0247 -14.43594,5.45821 -13.21675,0.55415 -14.43596,-9.61422 -4.8212,-6.01236 -8.42328,-16.84565 -2.41061,0 -2.41062,3.60185 -15.62737,18.06477 -13.24449,4.79325 -19.22944,27.67897 -12.02532,4.82097 -9.64245,18.03703 -8.42328,-1.2191 -13.21675,4.82096 -4.8212,-1.1914 -18.03802,-6.01232 -2.16123,0.99744 2.24435,0.74807 m -557.42124,-124.69252 5.8333,12.22501 5.7585,12.99741 -1.1779,6.41149 2.9666,0.74146 -0.1315,2.00631 m 399.5968,40.60604 -0.82881,-3.44565 -6.849,-15.48348 -3.05361,-4.97219 -4.3624,-15.48348 -15.53021,-11.20919 -4.3624,-3.0967 -1.8322,-8.06887 -6.849,-5.58277 6.44418,-7.09667 m 113.22439,1306.40634 1.54251,-15.1044 4.17227,-11.8294 -2.0646,-6.9686 3.484,-9.7216 -2.79582,-10.4099 0.68821,-18.79796 -11.09732,-11.78636 -4.17221,-13.93716 -11.8286,-4.17255 -2.79575,-7.61387 -0.68823,-18.10972 -5.54866,-13.20589 -13.20505,-2.75302 -35.48559,-2.10776 -4.86062,-5.54911 0,-8.3451 5.59189,-5.54904 13.20486,-7.65685 10.4091,-8.3451 5.54866,-11.14117 4.17221,-22.23923 0.73126,-9.03338 -6.96796,-12.51769 -17.37726,0 0,-15.31364 -4.1724,-6.23734 0.68823,-13.20586 -9.03265,-7.65689 -16.12991,-33.5955 m -306.33791,-435.66593 -14.8394,0 -9.3339,3.57032 -14.3663,7.91495 -7.9144,5.76411 -1.4624,10.06576 -9.2909,-7.18366 -7.9144,12.17351 -2.1505,7.22668 -2.8819,7.91493 -7.2262,3.57032 -5.7208,-5.03283 -4.3013,1.46251 0,11.44226 4.3013,7.22669 2.882,10.02274 0.7311,9.33447 1.4195,7.91491 6.4949,5.03289 -1.4623,10.10876 -7.1832,3.57034 -7.9144,-2.15083 -6.4949,0.73127 -9.3339,7.18368 -4.9896,2.15083 -7.226,2.88207 -17.9794,3.61333 -10.7532,-1.50555 -12.2157,-3.52732 -4.3014,-2.88208 -10.0649,5.72113 -7.9145,-2.15079 -11.4414,-5.03287 -14.5029,2.1508 -16.3615,3.38328 -18.7937,0" />
    <path
       style="fill:none;stroke:#333333;stroke-width:2;stroke-linecap:butt;stroke-linejoin:miter;stroke-miterlimit:4;stroke-opacity:1;stroke-dasharray:none;display:inline"
       d="m 88.881899,-170.71859 -2.607613,0.88189 -2.645933,-2.22399 -4.371574,0 -1.763981,-2.60745 -4.831739,-0.46014 -3.489583,3.52773 -2.645952,0 0,-4.83145 -10.507167,0 -13.153043,5.71341 -9.625157,-2.6458 -6.135573,-4.83148 3.489621,-6.97877 -4.831757,-7.89905 0,-8.32083 4.409951,-3.06759 0.881952,-2.18566 -2.224126,-1.34208 -2.607594,-2.18564 -4.371574,-6.13517 -1.342155,-5.25327 0.881971,-5.25324 3.067778,-0.46015 1.76398,-2.18565 2.18575,-0.42179 4.371611,-1.76387 3.527924,-1.76387 0.882009,-3.48937 3.489565,-2.18566 3.489602,-3.94952 4.477177,-8.98287"
       id="path2332"
       sodipodi:nodetypes="cccccccccccccccccccccccccccccccc" />
  </g>
  <g
     inkscape:groupmode="layer"
     id="layer2"
     inkscape:label="municipalities"
     style="display:inline"
     transform="translate(1345.2571,251.93315)">
    <path
       id="path1971"
       style="color:#000000;fill:#f1dbb0;fill-opacity:1;fill-rule:evenodd;stroke:#333333;stroke-width:2;stroke-linecap:butt;stroke-linejoin:miter;stroke-miterlimit:4;stroke-opacity:1;stroke-dasharray:none;stroke-dashoffset:0;marker:none;visibility:visible;display:inline;overflow:visible"
       d="m -1090.3766,343.06687 -13.5409,0 -3.3726,-5.67186 -1.124,-3.37246 -5.6209,-5.67186 -3.3725,-4.49659 0,-5.62075 6.7451,-3.42356 3.3723,-4.49659 4.4966,-3.37246 0.8687,-0.40879 -0.6131,-1.32853 -2.9126,-0.66428 0.8686,-0.61317 6.7449,-3.42356 3.4237,-4.54769 4.4965,-5.67185 4.5478,-6.74491 6.796,-3.37246 5.7228,-3.42354 4.4966,-1.12415 -10.2194,-13.64311 -5.672,-6.796 -10.1683,-3.42354 -7.9203,-4.49661 -4.5477,-7.92016 -6.796,-9.09541 -4.5477,-4.49659 -2.2483,-5.72296 -1.5328,-0.66427 2.2992,-5.77405 0,-5.87624 7.0005,-4.64989 11.7013,-12.87664 3.5257,7.05148 4.65,5.82516 7.0005,5.82514 10.526,5.82514 9.351,0 15.1759,-1.12415 7.0005,3.47466 8.1757,0 18.7018,2.35049 0,9.35089 2.2992,4.64991 -4.6497,8.17563 -1.1754,11.7014 0,5.82513 5.8251,5.82514 5.8763,3.52576 11.65039,8.17564 -1.17536,5.82516 4.70106,4.70099 8.17565,-1.17525 10.52619,0 8.17565,4.64989 4.64976,7.00038 0,5.87626 0,10.47503 4.64995,10.52615 12.87672,-7.00039 7.00029,-1.17524 8.17565,2.35049 9.35102,1.17525 7.00029,7.35807 2.35053,-0.35769 9.35083,-1.17524 4.64994,-10.52613 8.17566,-9.3509 -1.17537,-9.3509 -10.52599,-11.65028 -9.2999,-8.17565 -3.5257,-8.17564 1.17517,-9.3509 1.17536,-8.17563 2.29941,-9.3509 -3.47477,-11.6503 5.82531,-2.35049 10.526,-4.70099 1.22647,-0.97087 6.94918,0.97087 9.35101,3.52574 3.47459,7.00041 4.70106,9.35088 7.0003,12.82554 4.64994,14.05189 8.17566,16.35129 8.17565,1.17525 5.87624,4.64989 10.47506,8.17565 11.44577,4.95647 -5.56953,5.56966 -9.35101,9.3509 -4.70088,11.65029 -7.00048,17.52654 -5.82512,16.35128 0,10.52613 0,15.17604 -3.5257,8.17566 -5.82512,3.47464 5.82512,16.35129 8.17565,23.40277 3.52589,12.82557 14.00077,8.17565 15.17595,2.35049 4.70106,2.2994 4.64976,9.35088 10.52619,4.70101 7.00048,5.82514 1.17517,12.82554 -2.35053,4.70099 -5.82512,8.17566 -4.70088,8.17563 -1.12424,3.47464 10.47507,14.05189 10.52618,12.82555 8.17565,14.00079 5.82512,9.35088 3.11695,9.3509 -0.30653,-0.30658 -2.29941,-0.76647 -2.7593,0.71537 -12.8256,8.02235 -5.21188,3.62794 -6.33612,5.41636 -3.42366,2.24831 -0.86864,-0.3066 -0.76641,0.56208 -8.5333,-3.62794 -16.24926,-6.796 -1.58393,0 -4.90536,2.50379 -2.09512,7.35807 -0.10149,0.35768 2.2483,6.74491 0,3.83234 1.48188,4.44551 -0.86864,18.2419 3.83242,13.64311 c 2.78842,4.57689 4.59864,10.88381 4.59864,10.88381 l 4.59882,6.74492 -2.29941,10.21955 -0.97088,3.98563 1.07312,2.91257 3.32142,6.69381 6.796,7.92015 1.12405,4.54771 4.49659,7.92015 3.42366,6.79601 0,10.21954 -0.91977,5.16088 0.71529,6.59162 -1.78841,1.94171 -8.22677,0 -11.2926,3.37244 -3.37234,4.49661 -4.49659,4.54771 -5.67195,-3.37246 -5.62065,-3.42354 -4.49659,0 1.12406,4.54769 1.12424,5.62075 -1.83953,1.99282 -4.49659,3.37246 -4.54771,2.24829 -1.12425,4.54771 -4.49659,5.62076 -3.7813,7.00039 -6.796,0 -10.16835,-1.12415 0,-0.0511 -5.67195,-5.56966 -2.2483,-6.7449 1.12424,-5.67186 1.12406,-6.7449 -4.49659,-10.16847 -4.49659,-3.37244 -5.62065,-3.37246 -6.796,-2.2483 -11.24166,-1.17524 -11.2926,-5.62076 -0.10149,-0.25548 -2.14605,-6.54053 0,-9.04429 2.24829,-6.74491 -6.796,-3.37246 -6.74489,-4.49661 -5.62083,-6.796 -2.24829,-3.37245 0,-8.99321 -2.29942,-7.92016 -4.49659,-6.7449 -6.74488,-4.54769 -7.92006,-2.24831 -7.86913,2.24831 -7.92005,-3.37246 -6.74489,-3.37244 -2.24848,-4.49661 -2.45259,-2.14612 0.51101,-20.54129 -2.55501,-3.27026 -5.67177,-6.74491 -8.68667,-1.073 -0.3576,-0.0511 -10.1686,-3.37247 -4.4966,-3.42354 -6.7448,-5.62075 -4.5478,0 -3.3723,-9.04432 -3.3725,-7.92015 -5.6207,-5.62076 0.2043,-0.76647 2.044,-7.15368 -2.2483,-6.74491 6.7449,-12.41676 1.6351,-3.16806 -0.051,0 0.6644,-1.32853 2.2483,-9.04432 -4.4966,-10.11734 -6.7449,-5.62076 -6.796,-3.42356 -3.3725,-4.49659 -3.3726,-6.74492 -6.796,-4.54769 -8.9932,-3.37246 -3.3723,-4.49659 -5.672,-5.62076 -10.1172,-5.67186 0,-6.7449 -5.6208,-6.74491 -7.9203,-7.92015 -4.4966,-10.16846 3.3726,-6.79601 9.0443,-3.37244 8.9932,-4.49661 1.533,-5.46745 -0.2045,-0.0511 0.6643,-2.3505 5.6207,-7.86907 3.4236,-10.16845 7.869,-14.66506 -4.4966,-11.24151 -3.3724,-6.79601 3.3724,-8.99321 4.4966,-9.0443 -7.869,-2.2483 -3.4236,-4.49661 -3.3724,-7.86905 -2.2483,-7.92015 z"
       sodipodi:nodetypes="cccccccccccccccccccccccccccccccccccccccccccccccccccccccccccccccccccccccccccccccccccccccccccccccccccccccccccccccccccccccccccccccccccccccccccccccccccccccccccccccccccccccccccccccccccccccccccccccccccccccccccccccccccccccccccccccccccccccccccccccccccccccccc" />
    <path
       id="path3029"
       style="color:#000000;fill:#f1dbb0;fill-opacity:1;fill-rule:evenodd;stroke:#333333;stroke-width:2;stroke-linecap:butt;stroke-linejoin:miter;stroke-miterlimit:4;stroke-opacity:1;stroke-dasharray:none;stroke-dashoffset:0;marker:none;visibility:visible;display:inline;overflow:visible"
       d="m -240.87629,906.36872 -1.37965,-1.12415 -3.52574,-2.29939 -2.81038,-0.45989 -11.13931,5.21198 -0.0511,0 -3.27026,3.32134 -4.54769,7.92017 -4.49661,6.84709 -0.20438,0.15335 -0.71539,1.63513 -3.06586,1.17525 -0.56208,0.40878 -13.64309,6.79601 -1.22635,-0.30658 -2.19721,1.02194 -3.32134,-4.54769 -3.42356,-4.08782 -2.3505,-3.78125 -3.32136,-5.31415 -2.2483,-5.67186 -2.24829,-3.37246 -2.4016,-4.13891 -5.51855,-3.83234 -0.97087,-2.1461 -2.50379,-1.22634 -2.2483,-5.62076 0,-3.27026 -0.0511,-0.10224 0.0511,-0.10224 0,-2.24831 2.2483,-7.92015 2.29939,-3.37245 4.54771,-7.92017 7.92015,-4.54769 4.54771,-6.796 3.37244,-3.42356 -7.92015,-5.67184 -4.49661,-3.37246 -5.72294,-6.79601 -2.23444,-5.66356 -1.17461,-4.58098 -3.40636,-7.92861 -1.76192,-2.7016 -9.80798,-5.57939 -0.23492,-0.41111 -0.64604,-0.35238 -4.52224,-9.04449 -3.40637,-6.81273 -7.98733,-4.52225 -2.17303,-2.29048 -0.0586,-0.0586 -0.88095,-0.52857 -0.0586,-1.40953 -1.76191,-3.52383 -0.64604,-1.23334 -1.11588,-5.69685 -1.3508,-1.3508 -2.11429,-2.05557 -2.23176,-6.754 0,-1.76191 -3.05398,-3.4651 -0.88096,-1.46826 -2.87779,-2.40794 -3.34763,-5.69686 -2.29049,-4.52224 5.63812,-4.52224 0,-3.40637 -4.52224,-10.16037 3.40636,-6.87146 -0.82222,-4.99208 -1.64446,-2.76033 -3.17144,-2.40795 -1.17461,-3.40637 1.17461,-5.63812 -2.81906,-4.93336 -5.69685,-5.93177 -3.75875,-4.0524 8.16353,-5.75558 6.98892,-1.11588 8.16353,2.29049 8.22226,4.69843 9.33814,-4.69843 8.16353,-4.63971 10.51275,1.17461 10.51275,-6.98892 4.69843,-1.17461 8.16354,1.17461 5.81431,0 5.87304,-8.22226 11.62863,0 7.04765,-2.34922 5.87304,-5.81431 10.45402,-11.68736 2.34922,-13.97784 5.81431,-10.57148 2.34922,-6.98892 1.17461,-8.16353 2.34922,-3.52383 9.33814,-2.29049 4.69843,-4.69843 6.98892,-1.17461 6.99644,3.50428 4.70101,-4.70101 5.82514,-1.12415 8.17565,1.12415 1.17525,-5.82514 -5.87626,-7.00038 4.70101,-5.82516 4.64989,-4.70099 8.17564,-2.2994 3.52576,-1.17525 4.64989,-5.87625 2.3505,-7.00039 7.15368,-1.63513 0,1.12415 3.42354,4.59881 2.29942,2.29939 1.17525,3.42355 3.42354,5.72295 1.12415,9.1465 3.47466,2.2994 5.72294,3.47466 -3.42355,8.02235 -1.17524,4.54769 1.17524,4.59881 4.54769,4.59879 5.72296,0 4.59881,3.42354 4.59879,1.17527 3.42354,1.12415 2.29942,4.59879 -1.12415,4.54771 -2.29941,3.47464 -4.59879,2.2994 -1.12415,6.8471 3.42354,2.29939 3.42354,4.59881 3.47466,6.84711 3.42355,1.17525 5.72295,0 3.42355,-1.17525 0,6.89818 1.17524,4.59881 4.54771,5.72294 4.59879,4.59881 2.29942,4.54771 2.299394,8.02233 3.423543,6.89821 0,4.59881 1.175247,5.72294 0,6.8982 0,6.02954 3.435496,4.24237 5.696852,-2.23176 4.639705,5.69685 2.290487,3.40637 -2.290487,4.6397 -1.174609,2.29049 0,6.81273 -2.290487,5.75558 -3.465096,2.29049 -3.406365,11.51116 0,4.52225 -1.115878,13.74292 -2.290487,5.81431 -1.23334,7.98734 -1.115878,8.04607 0,6.81273 0,9.22068 2.349218,5.69685 3.406365,5.75559 5.696852,5.69685 3.465096,3.46509 3.465096,3.4651 3.406365,2.29049 9.161948,2.29048 6.871461,0 2.290487,-5.75558 0,-5.75558 1.115878,-3.40637 1.174609,-3.40636 5.755583,5.69685 2.290487,-1.17461 3.406365,3.4651 4.639705,0 3.406365,-3.4651 3.406365,-3.40636 1.174609,-1.11588 4.639704,3.40636 3.406366,6.87146 0,4.58098 -4.580974,3.46509 0,2.23176 -2.349218,5.81431 0,3.40637 8.04607,0 -2.231757,6.87146 2.231757,3.4651 4.580974,0 2.290487,0 3.465096,6.81273 4.5809738,1.17461 4.580974,0 4.580974,1.11587 1.1746087,0 -1.1746087,9.22068 2.290487,3.40637 0,6.93019 -4.52224358,2.23176 -4.63970442,0 -3.4063653,-3.40637 -2.290487,-3.40637 -3.4650955,0 -2.290487,1.11588 1.115878,4.58098 2.349217,4.58097 3.4063657,3.4651 1.1746088,4.58097 0,3.40637 3.4063653,2.29048 2.290487,4.63971 3.4649078,5.69704 -0.2349218,1.58572 -0.1174608,0 -4.169861,9.10322 -8.339722,4.69843 -3.99367,3.17145 -4.404782,1.05714 -0.176098,0.0586 0,0.0586 -2.231756,10.16036 -2.173026,2.87779 -0.176098,1.05715 -0.822226,0.23492 -0.234922,0.35239 -6.754,2.34921 -7.928609,1.11588 -7.928609,2.23176 -5.344469,0.88095 -6.049235,2.46668 -1.761913,0.70477 -0.469844,0.46984 -4.522243,2.29049 -1.3508,-1.58572 -0.646035,0.11746 -0.646035,-1.58572 -4.169861,-4.87463 -6.754,-4.58097 -2.290487,-2.29049 -10.219096,-4.52225 -2.76033,1.3508 -3.758748,3.23018 -4.346054,1.23334 -6.10796,4.46351 -2.29049,4.46351 -3.40637,3.4651 -1.70318,2.29049 -4.46351,8.80956 1.64445,5.81432 1.11588,4.52224 0,0.23492 0.52857,1.93782 -0.52857,0.23493 0,1.05714 -2.23176,-0.17609 -1.40953,0.52857 -4.87462,-1.23334 -2.76034,-0.23492 -2.58413,-0.88096 -4.63971,1.52699 -4.99209,4.16986 -1.40953,1.93811 -3.40636,-2.23176 0,-7.98734 -1.11588,-5.69685 -1.11588,-2.23176 -2.64287,-1.9381 -14.27149,0.7635 -3.17145,-1.76192 -15.09372,-4.99208 -6.81273,-2.23176 -3.23017,-1.40953 -1.05715,-0.29365 -0.41112,-0.11746 0,-0.23493 -3.23017,-1.3508 -1.11588,-9.04448 -1.11588,-5.69686 -1.1746,-5.69685 -4.11114,-8.33972 -4.28732,-1.64445 -0.64603,-0.1761 -3.81748,-1.58572 -0.29365,-0.0586 -1.52699,-0.64603 -0.82223,-0.93969 -5.9905,-4.22859 -2.99526,-4.22859 -2.7016,-1.93811 -5.63812,-6.81273 -4.52224,-4.46351"
       sodipodi:nodetypes="cccccccccccccccccccccccccccccccccccccccccccccccccccccccccccccccccccccccccccccccccccccccccccccccccccccccccccccccccccccccccccccccccccccccccccccccccccccccccccccccccccccccccccccccccccccccccccccccccccccccccccccccccccccccccccccccccccccccccccccccccccccccccccccccccccccccccccccccccccccccccccccccccccccccccccccc" />
    <path
       style="color:#000000;fill:#f1dbb0;fill-opacity:1;fill-rule:evenodd;stroke:#333333;stroke-width:2;stroke-linecap:butt;stroke-linejoin:miter;stroke-miterlimit:4;stroke-opacity:1;stroke-dasharray:none;stroke-dashoffset:0;marker:none;visibility:visible;display:inline;overflow:visible"
       d="m -263.66588,259.87969 -7.30699,7.30699 -7.81795,3.32136 -7.81797,5.62073 -3.32134,8.94212 -3.37246,8.89102 -3.32134,4.44551 -7.86907,10.06625 0,3.37246 0,8.89101 2.24831,10.06625 -4.44551,10.01517 -6.6938,-3.32135 -7.81797,-4.44551 -7.81795,1.07305 -8.94212,-1.07305 -8.9421,0 -8.89102,6.69381 -3.37246,5.56965 -6.6427,7.81796 -3.37246,0 -6.69381,0 -11.13931,0 -13.43871,0 -4.44551,-1.32853 0,7.76685 -1.17524,15.17604 -4.6499,14.00079 -3.52574,4.70099 -16.35128,-5.87624 -11.7014,-5.82514 -9.2998,4.64989 -3.52574,-5.82514 -10.52615,-8.17565 -5.82514,-4.64989 -4.64989,-7.0004 -7.05151,5.82515 -8.17563,4.64989 -9.2998,2.3505 -0.35768,-0.66427 -4.34331,7.66467 -8.17565,4.70099 -10.52613,4.64989 -8.17565,5.82514 -7.00039,5.87626 -2.2994,10.47504 -2.35049,9.3509 -4.70101,14.00079 -3.47464,12.87664 -4.701,4.64989 -5.82515,5.87624 -7.00039,-1.17525 -5.82514,-4.70099 -8.17565,11.7014 -2.24829,2.50378 1.07304,-0.15336 3.47465,15.17604 1.17524,10.47503 -2.29939,7.0515 -3.52574,8.17564 2.35049,4.6499 5.82514,5.82514 9.3509,-1.17524 8.17565,-3.47465 11.65028,-3.52576 7.0515,-1.17525 5.82514,-1.12414 7.00041,-8.17564 9.35088,1.12415 10.52615,2.35049 4.64989,2.3505 9.3509,0 2.35049,9.3509 3.47465,5.82514 -2.3505,7.0004 -3.47464,5.82514 -1.89063,5.92734 7.0004,4.39441 5.67186,5.67186 0.97084,0.97084 0.40879,1.63513 0.35768,1.53293 5.31417,2.6571 4.8032,4.03673 0.61316,7.61357 0,3.06586 2.29939,4.54769 3.37247,7.92017 2.09501,1.68621 0.56206,1.53295 2.19722,0.61316 0.81756,0.66427 0.61317,-0.25549 2.14611,0.61317 20.6946,-9.86187 1.17524,-0.20438 2.5549,0.66427 3.11696,-1.53293 3.88343,-0.61319 13.28542,-4.95647 3.16806,0 3.83233,1.68623 5.21197,6.89819 1.53293,3.06588 3.37246,7.97125 0,6.5405 -2.29939,5.97844 -4.49661,6.6938 0,10.16847 0,7.97125 0,2.14612 -2.91258,4.59879 2.91258,3.98562 0,1.73733 c 0,-2e-5 2e-5,4.51157 0,9.0443 0,4.53268 2e-5,5.72298 0,5.72296 l 2.04391,6.18282 0,1.43075 2.81038,3.11696 4.19001,6.23392 -1.12415,4.54771 0,2.24829 2.4016,2.86148 0,2.4527 1.22634,1.32853 8.17564,-5.77404 7.0004,-1.12415 8.17564,2.2994 8.17565,4.70099 9.35088,-4.70099 8.17565,-4.64989 10.52615,1.17524 10.52613,-7.0004 4.64989,-1.17525 8.17565,1.17525 5.82514,0 5.87626,-8.17563 11.65028,0 7.0004,-2.3505 5.87624,-5.82516 10.47505,-11.70137 2.35049,-14.0008 5.82514,-10.52614 2.3505,-7.00039 1.17526,-8.17565 2.3505,-3.52575 9.29978,-2.29939 4.70101,-4.70099 7.00039,-1.17527 7.40916,3.11698 4.29223,-4.29223 5.82514,-1.12414 8.17565,1.12414 1.17525,-5.82513 -5.87626,-7.00039 4.70101,-5.82516 4.64989,-4.70099 8.17564,-2.29939 3.52576,-1.17525 4.64989,-5.87626 2.3505,-7.00038 7.15368,-1.63513 0,-3.47465 5.72296,-5.72295 -10.32175,-6.89821 -5.72296,-3.42354 -3.42354,-4.59879 3.42354,-1.12417 2.2994,0 2.29939,-4.59879 -4.59879,-4.54771 -6.8471,-2.29939 -3.47464,-9.1976 -4.54771,-2.2994 1.12415,-8.02235 -2.2994,-4.54771 -9.1465,-9.19758 -5.77404,-10.32177 -3.42356,-6.84708 -3.42354,-6.89821 -4.59881,-5.72295 -4.59879,0 -9.1465,0 -5.72296,-6.89821 -1.17525,-6.84708 2.2994,-10.32175 4.59881,-6.89821 5.72294,-6.84711 8.02235,-9.1976 -5.72294,-4.59879 -4.59881,-5.72295 -5.72294,-6.84711 -5.72295,-5.77404 -4.59881,-5.72295 2.29941,-8.02236 -3.42356,-5.72295 -1.17525,-8.02234 2.2994,-4.59881 0,-4.5477 -5.72294,-6.89819 -8.02235,-8.02235 -10.32175,-13.74531 0,-11.497 4.59879,-6.8471 4.59881,-9.1976 5.72294,-6.84709 -2.2994,-6.8982 -2.29939,-12.62114 -0.81757,-0.66429 z"
       id="path1957" />
    <path
       id="path2995"
       style="color:#000000;fill:#f1dbb0;fill-opacity:1;fill-rule:evenodd;stroke:#333333;stroke-width:2;stroke-linecap:butt;stroke-linejoin:miter;stroke-miterlimit:4;stroke-opacity:1;stroke-dasharray:none;stroke-dashoffset:0;marker:none;visibility:visible;display:inline;overflow:visible"
       d="m -500.65734,373.57223 -4.69573,6.98368 -8.16353,4.69843 -10.57148,4.69844 -8.16353,5.81431 -6.98892,5.87304 -2.29049,10.45403 -2.34921,9.33814 -4.69844,14.03657 -3.4651,12.86197 -4.69843,4.6397 -5.87304,5.87305 -6.98893,-1.17461 -5.81431,-4.69844 -8.16353,11.68736 -1.18216,2.37211 3.47464,15.17604 1.17525,10.47503 -2.2994,7.0515 -3.52574,8.17563 2.35049,4.64991 5.82514,5.82514 9.3509,-1.17525 8.17566,-3.47464 11.65027,-3.52576 7.05151,-1.17525 5.82514,-1.12415 7.0004,-8.17563 9.35088,1.12415 10.52615,2.35049 4.64989,2.3505 9.3509,0 2.3505,9.3509 3.47464,5.82514 -2.3505,7.0004 -3.47464,5.82514 -1.89063,5.92734 -2.04391,-1.27745 -0.71537,-0.20438 -22.53411,0 -12.26347,7.35807 -3.01476,3.01478 -10.16845,-3.37246 -1.37965,-0.66427 -11.19041,-3.88343 -0.97087,-2.19721 -0.10224,-0.0511 -2.29941,-4.64989 -1.94171,-2.50379 -4.80319,-1.89062 -4.34331,-1.43073 -4.54769,0.35769 -11.5992,6.5916 -1.83953,-1.12415 -0.35768,0.15336 -0.91975,-0.91977 -1.02196,-0.61318 -0.20439,-0.61316 -3.52574,-3.52575 -3.67904,-6.59162 -4.95649,-0.86867 -9.96407,3.37247 -5.77404,4.95649 -2.50379,4.95647 3.32136,7.40919 1.07304,11.54809 2.09502,6.94929 1.12415,6.796 1.94171,10.78163 4.49661,12.57006 0.30658,0.56207 8.58442,12.46786 2.81037,2.09501 2.81038,5.10978 3.67905,4.75209 0,0.20438 0,1.83953 0.30658,0.56206 -0.30658,2.7593 0,7.05149 -9.86187,11.54809 -4.13892,7.46027 0.61318,5.92734 1.22635,3.83234 0,3.11697 2.29939,10.27064 -3.32136,10.78163 -2.60598,1.68623 -0.86866,2.4016 -2.75928,0 -1.22635,0.81756 -6.23394,-0.81756 -6.18282,-0.81757 -2.65708,-3.57684 -2.50379,-1.22635 -5.67186,-9.0443 -2.24829,-9.09541 -4.49661,-9.0954 -1.12415,0.81756 -1.12415,2.24831 -4.19003,22.38081 -6.94928,3.73015 -0.2555,0.30658 -0.40878,0.0511 -3.11697,1.68623 -7.35806,1.48183 -0.86867,0.15335 -6.43832,-2.24831 -1.07305,0 -7.97125,-2.24829 -3.16808,-1.58404 -8.68667,-1.32854 -0.81753,-2.50378 0.0507,-0.15336 -4.34323,-1.22635 5.6718,-9.04429 1.94171,-5.87624 0,-2.14612 -0.15335,-0.66426 -6.48946,-4.85429 -2.60594,-3.01478 -3.98559,-1.58403 -0.66436,-2.65708 -6.796,-2.65708 -25.5999,-6.64272 -0.25559,-4.54769 -1.83953,-0.51098 1.48188,-5.87624 -0.86864,-14.66508 -5.16076,-12.31456 -4.54771,-5.62075 -2.91266,-2.96366 -2.45277,-2.4527 -3.11694,-9.3509 -5.82512,-9.35088 -8.17565,-14.00079 -10.52619,-12.82554 -10.47488,-14.0519 1.12406,-3.47464 4.70106,-8.17563 5.82512,-8.17566 2.35054,-4.70099 -1.17536,-12.82554 -7.0003,-5.82514 -10.52618,-4.70101 -4.64995,-9.35088 -4.70088,-2.29939 -15.17613,-2.3505 -14.00077,-8.17565 -3.52571,-12.82555 -8.17565,-23.40277 -5.82512,-16.35129 5.82512,-3.47464 3.5257,-8.17566 0,-15.17604 0,-10.52613 5.82512,-16.35128 7.00048,-17.52654 4.70088,-11.65029 9.35102,-9.3509 5.56952,-5.56966 -11.44576,-4.95647 -10.47507,-8.17565 -5.87624,-4.64989 -8.17565,-1.17525 -8.17565,-16.35129 -4.64995,-14.05189 -7.00029,-12.82554 -4.70107,-9.35088 -3.47459,-7.00041 -9.35101,-3.52574 -6.94917,-0.97087 4.59864,-3.67902 4.70106,-8.17566 -4.70106,-11.70139 -4.64976,-9.29978 -2.35053,-9.3509 -3.52571,-8.17564 0,-11.70139 -4.90535,-3.93453 17.78188,-0.71536 11.65043,0 7.05141,-2.3505 7.00048,-1.17525 3.47459,-5.82515 0,-8.17564 1.17517,-12.87664 1.17536,-11.6503 1.17517,-9.35088 5.82512,-1.17525 7.00048,-3.474657 2.35053,-7.051486 -1.17536,-7.000405 -1.17517,-4.649891 -2.29941,-5.825138 5.82512,-2.350496 10.52618,-3.525762 16.14683,-3.321342 3.67906,-3.679044 3.52571,-8.175633 2.29941,-9.350901 -1.12405,-4.64989 -9.35101,-2.350496 -12.87653,-4.649902 -1.17536,-5.876238 5.87624,-2.299396 -3.52571,-7.000404 -5.82512,-3.525744 -5.82512,-5.8251379 0,-4.7010097 1.12405,-9.3508815 0,-8.1756529 0,-11.650276 3.5259,-9.350901 7.00029,-8.175634 1.17536,-3.525761 -4.64995,-12.825525 1.12406,-8.175652 -7.0003,-9.350882 -4.64994,3.525743 -5.82512,2.299395 -3.52571,-4.64989 2.35035,-4.64991 5.8253,-5.876238 -3.52589,-9.350901 -7.00029,-7.000381 2.35053,-3.47465 -3.52589,-4.70101 -8.17565,-3.47464 -0.91958,-3.27026 6.08053,-10.21955 4.64994,-9.1976 5.72288,-8.12455 4.59883,-5.77404 5.72288,-5.77406 6.94936,-5.77403 6.89825,-2.2994 6.89824,0 8.07341,-1.17525 3.42347,0 4.59883,-5.77405 4.59883,-4.59879 10.32171,-2.3505 10.37283,0 0.35764,0.25548 4.85442,0 8.22677,1.07305 7.20477,0 14.40954,1.99281 4.13894,3.11696 4.13895,2.09502 4.08783,4.08782 6.18276,9.2487 1.022,4.13891 1.02182,3.06588 10.3219,3.11696 1.02181,5.16087 1.02201,5.10978 4.13894,7.20478 2.04382,3.11696 1.02202,3.11697 2.04392,1.99281 5.16087,0 7.20479,1.07306 11.34371,0 5.16087,-6.18284 c 0,2e-5 0.006,-2.0873 6.18282,-3.11696 1.26977,-0.21161 2.54776,-0.37698 3.83233,-0.51098 4.96553,-0.51848 9.5553,-0.51096 9.5553,-0.51096 l 6.13172,-1.02197 6.13174,1.99281 3.01476,-0.76646 3.32136,8.94212 2.2483,3.32134 4.44551,6.6938 -1.12415,6.69383 2.24829,6.744899 7.76687,6.642704 5.62076,5.569656 -7.81797,8.993218 -2.2483,4.44549 -2.19721,8.891018 3.32136,8.942117 4.44551,10.066265 -6.6938,6.693804 -3.32136,6.693804 -2.2483,7.817951 0,7.76687 0,6.7449043 0,3.6279435 0,1.9417128 2.2483,7.8179514 4.4455,7.76687 0,7.869051 -1.12414,4.445509 6.6938,7.817952 0,3.321353 1.12415,6.693804 7.81797,-4.445509 8.9421,-1.124147 8.94212,-5.569649 3.32134,-4.49659 c 2e-5,-1.9e-5 3.38063,0.01879 4.49661,-4.445509 1.11595,-4.46387 5.56965,-8.942118 5.56965,-8.942118 l 3.32136,-3.321361 0.40879,0.715384 7.40917,12.672243 6.6938,10.015165 3.37246,3.372435 6.6938,7.81797 0,16.708969 -1.12414,5.620756 2.19721,6.693804 5.62074,14.511774 0,5.569656 0,7.81795 2.24831,5.56966 3.32134,6.6938 4.44551,8.94212 2.24832,4.44551 10.06624,0 5.56966,2.24829 5.56966,1.07305 -2.2483,10.06627 -5.72296,7.66467 -0.97084,1.27744 -2.19722,5.56966 5.56966,8.9421 8.89102,6.6938 6.6938,5.56968 6.74491,7.81795 3.32136,2.24829 5.56965,4.44551 3.37246,5.56966 -0.35768,0.97086 -5.21197,13.54091 -4.49661,7.81795 -2.19721,7.81797 -3.11697,9.24869 -0.25548,0.76646 -5.56965,13.38763 -2.2483,6.7449 0,5.56966 2.2483,5.56965 2.19719,3.32136 c 0,-3e-5 4.48024,1.15683 2.24832,5.62076 -2.2314,4.46387 -2.24832,6.69379 -2.24832,6.69381 0,10e-6 1.15689,6.69378 5.62076,6.6938 4.46383,-2e-5 7.81797,4.44549 7.81797,4.44551 l 16.70897,8.9421 11.13931,-5.62074 8.9421,0 10.06626,4.49659 6.69381,6.69382 1.12416,8.9421 0.97085,3.47464 1.22635,4.34331 3.37246,6.69382 3.37244,11.13932 3.32136,5.56965 6.69381,2.04392 0,7.76685 -1.17525,15.17604 -4.64989,14.00079 -3.52574,4.70099 -16.35129,-5.87624 -11.7014,-5.82514 -9.2998,4.64989 -3.52574,-5.82514 -10.52615,-8.17565 -5.82514,-4.64989 -4.64989,-7.0004 -7.0515,5.82515 -8.17564,4.64989 -9.2998,2.3505 z"
       sodipodi:nodetypes="ccccccccccccccccccccccccccccccccccccccccccccccccccccccccccccccccccccccccccccccccccccccccccccccccccccccccccccccccccccccccccccccccccccccccccccccccccccccccccccccccccccccccccccccccccccccccccccccccccccccccccccccccccccccccccccccccccccccccccccccccccccccccccccccccccccccccccssccccccccccccccccccccccccccccccccccsccccccccccccccccccccccccccccccccccccccccccsssccccccccccccccccccccccccccc" />
    <path
       id="path2948"
       style="color:#000000;fill:#f1dbb0;fill-opacity:1;fill-rule:evenodd;stroke:#333333;stroke-width:2;stroke-linecap:butt;stroke-linejoin:miter;stroke-miterlimit:4;stroke-opacity:1;stroke-dasharray:none;stroke-dashoffset:0;marker:none;visibility:visible;display:inline;overflow:visible"
       d="m -1281.4312,-84.825847 0.7153,4.496665 0.4088,2.350495 0,5.620757 0,5.671857 0,6.796004 0,6.796004 2.2994,4.547709 2.2483,9.095399 2.2483,10.117347 3.4236,12.518961 2.2993,7.9201517 3.3725,9.09539941 0,12.41676089 0,10.219565 -2.146,8.482217 -0.1015,0.613183 -2.2994,7.920144 -1.1243,7.920152 -3.4235,7.920151 -2.2483,7.971252 -3.4234,6.796005 -2.2483,9.095399 -2.2485,6.744904 -1.1752,6.796004 4.5477,9.095421 -3.3725,5.67184 -3.4235,7.92015 -1.124,9.09542 -1.1243,4.49659 2.2483,4.5477 2.2483,6.79601 0,4.54771 -1.124,4.54769 0.9197,4.49661 0.2043,1.17524 5.672,2.2483 4.5477,-2.2483 4.5475,-2.29939 6.796,-3.37246 3.577,-2.40167 3.219,-2.1461 4.4968,0 2.2992,-3.42356 4.5477,-7.92015 4.5477,1.12415 4.4966,3.37246 4.5477,-1.12415 3.4237,-2.24831 10.1683,-1.63513 0.9709,0.45988 2.4017,1.17525 5.6717,3.37246 7.9714,-4.49661 6.796,2.24829 4.5477,5.67186 5.6718,7.97125 4.5477,6.79601 -2.2994,9.0443 3.4236,4.49661 4.4966,3.42356 1.1241,4.54769 0,7.92015 6.796,2.29941 4.5477,5.67184 1.1242,6.796 1.1752,1.12415 0.8175,0.81757 3.6791,3.67904 6.8471,3.42356 10.1686,3.37245 9.0443,3.42356 6.4383,2.70817 2.2992,-5.77405 0,-5.87624 7.0005,-4.64989 11.7014,-12.87664 3.5257,7.05148 4.6499,5.82516 7.0005,5.82514 10.526,5.82514 9.351,0 15.176,-1.12415 7.0005,3.47466 8.1756,0 18.7018,2.35049 0,2.65714 0,6.6938 2.2993,4.64991 -4.6498,8.17564 -1.1753,11.70139 0,5.82514 5.8251,5.82514 5.8762,3.52576 11.65044,8.17563 -1.17536,5.82516 4.70106,4.70099 8.17566,-1.17525 10.52618,0 8.17565,4.6499 4.64976,7.00038 0,5.87626 0,10.47503 4.64995,10.52615 12.87672,-7.00039 7.00029,-1.17525 8.17565,2.3505 9.35102,1.17525 7.00029,7.00038 0,0.35768 2.35053,-0.35768 9.35083,-1.17525 4.64994,-10.52613 8.17566,-9.3509 -1.17536,-9.3509 -10.526,-11.65027 -9.2999,-8.17566 -3.5257,-8.17563 1.17517,-9.3509 1.17536,-8.17563 2.29942,-9.3509 -3.47478,-11.6503 5.82531,-2.35049 10.526,-4.701 1.22648,-0.97092 4.59864,-3.67902 4.70106,-8.17566 -4.70106,-11.70139 -4.64976,-9.29978 -2.35054,-9.3509 -3.5257,-8.17564 0,-11.70139 -4.90536,-3.93453 17.78189,-0.71536 11.65043,0 7.05141,-2.3505 7.00048,-1.17525 3.47458,-5.82515 0,-8.17564 1.17518,-12.87664 1.17536,-11.6503 1.17517,-9.35088 5.82512,-1.17525 7.00048,-3.474657 2.35053,-7.051486 -1.17536,-7.000405 -1.17517,-4.649891 -2.29941,-5.825138 5.82512,-2.350496 10.52618,-3.525762 16.14683,-3.321342 3.67906,-3.679044 3.52571,-8.175633 2.29941,-9.350901 -1.12405,-4.64989 -9.35101,-2.350496 -12.87654,-4.649902 -1.17536,-5.876238 5.87624,-2.299396 -3.5257,-7.000404 -5.82512,-3.525744 -5.82512,-5.8251379 0,-4.7010097 1.12405,-9.3508815 0,-8.1756529 0,-11.650276 3.5259,-9.350901 7.00029,-8.175634 1.17536,-3.525761 -4.64995,-12.825525 1.12405,-8.175652 -7.00029,-9.350882 -4.64994,3.525743 -5.82512,2.299395 -3.52571,-4.64989 2.35035,-4.64991 5.8253,-5.876238 -3.52589,-9.350901 -7.00029,-7.000381 2.35053,-3.47465 -3.52589,-4.70101 -8.17566,-3.47464 -0.91957,-3.27026 -0.7666,1.32855 -4.59883,-3.42355 -4.64976,-2.35049 -8.02248,-5.77406 -12.67224,-1.12415 -2.2483,1.12415 -4.59883,2.3505 -2.29922,-4.64989 -5.77419,-4.64991 -3.42347,-5.77404 -8.07341,-4.59881 2.29941,-3.42354 0,-3.52575 -2.29941,-8.07345 -3.42366,-1.17525 -5.774,0 -6.89824,2.3505 -9.19766,0 -2.29922,3.42356 -4.59883,4.64989 -5.77419,5.77404 -8.07342,3.47466 -7.97117,3.47464 -1.83953,1.78844 -2.81042,2.81037 -3.42347,8.12454 -3.42365,4.59881 -5.774,3.47464 -3.47459,3.47464 -1.12424,4.59881 -1.17517,6.94929 -5.77402,-2.3505 -8.0225,-4.59879 -5.7228,-2.29941 -6.9494,-2.2994 -6.8471,0 -4.5989,0 -5.774,0 -6.8982,-2.35049 -2.2992,-3.42355 -3.4237,-6.9493 -4.5988,0 -4.5988,0 -4.5987,0 -9.2488,1.17525 -3.2191,-1.94172 -2.5037,-1.53293 -4.5989,-3.47464 -2.2994,-4.59881 -2.2994,-5.77404 -6.8982,-4.64991 -4.5989,-2.35049 -3.4746,-2.2994 -3.4234,-4.59881 -9.1977,-3.47464 -1.1242,1.17525 -5.774,4.59881 -1.1752,3.47464 -6.8982,0 -1.1243,-2.29939 -2.3503,-2.3505 -3.4237,-5.77406 -4.5988,-4.59879 -5.7229,-2.35049 c 0,0 -3.0077,-1.20282 -6.3872,-2.29942 -1.328,-0.43086 -2.6881,-0.79811 -3.9856,-1.12414 -4.5998,-1.15569 -2.2994,-3.47468 -2.2994,-3.47465 l -3.4237,-3.47464 -2.3503,-3.47466 -3.3726,-5.77404 0,-5.77406 1.1243,-3.47466 2.2483,-5.77404 -1.1243,-10.42394 -4.0367,-6.02954 0.1541,-1.99282 -1.2774,-0.35768 -0.051,0.25548 -6.183,2.04392 -6.796,2.29941 -9.0954,4.54769 -11.3437,5.67186 -6.796,3.37244 -6.796,5.67186 -3.3724,3.42356 -9.0954,11.29261 -4.5477,4.54769 -12.4679,7.92017 -7.9201,3.42355 -3.3725,6.796 -2.2995,6.796 -3.3723,3.37245 -0.8687,1.99281 -2.5548,5.97844 -2.2485,4.49661 -3.4234,6.8471 -4.5477,7.92015 -1.1241,5.67186 1.1241,6.796 2.2994,9.0443 -1.1752,6.796007 0,4.547709 -2.2483,5.671857 z"
       sodipodi:nodetypes="cccccccccccccccccccccccccccccccccccccccccccccccccccccccccccccccccccccccccccccccccccccccccccccccccccccccccccccccccccccccccccccccccccccccccccccccccccccccccccccccccccccccccccccccccccccccccccccccccccccccccccccccccccccccccccccccccccccccccccccccccccccccssccccccccccccccccccccccccccccccccccccc" />
    <g
       style="font-size:144px;font-style:normal;font-variant:normal;font-weight:bold;font-stretch:normal;text-align:start;line-height:125%;writing-mode:lr-tb;text-anchor:start;fill:#333333;fill-opacity:1;stroke:none;font-family:Cambria;-inkscape-font-specification:Cambria Bold"
       id="text4249">
      <path
         d="m -660.29504,264.67831 c -6e-5,2.71877 0.14056,4.78127 0.42187,6.1875 0.32807,1.35939 0.86713,2.48439 1.61719,3.375 0.79681,0.84376 1.92181,1.52345 3.375,2.03907 1.45306,0.46875 3.28118,0.84375 5.48437,1.125 2.20306,0.23438 5.10931,0.39844 8.71875,0.49218 l 0,6.39844 -60.67968,0 0,-6.39844 c 5.2031,-0.23436 8.90622,-0.53905 11.10937,-0.91406 2.24997,-0.42187 3.96091,-1.03124 5.13281,-1.82812 1.17185,-0.79687 2.01559,-1.92187 2.53125,-3.375 0.56247,-1.45311 0.84372,-3.8203 0.84375,-7.10157 l 0,-50.83593 c -3e-5,-1.92181 -0.37503,-3.30462 -1.125,-4.14844 -0.70315,-0.84368 -1.68753,-1.26555 -2.95312,-1.26563 -1.17191,8e-5 -2.83597,0.53914 -4.99219,1.61719 -2.1094,1.0782 -5.60158,3.28132 -10.47656,6.60938 l -4.28906,-7.45313 36.70312,-22.00781 9,0 c -0.28131,4.50009 -0.42193,10.73446 -0.42187,18.70312 l 0,58.78125"
         style=""
         id="path4279" />
    </g>
    <g
       style="font-size:144px;font-style:normal;font-variant:normal;font-weight:bold;font-stretch:normal;text-align:start;line-height:125%;writing-mode:lr-tb;text-anchor:start;fill:#333333;fill-opacity:1;stroke:none;font-family:Cambria;-inkscape-font-specification:Cambria Bold"
       id="text4253">
      <path
         d="m -343.67004,531.06891 c 3.04681,2e-5 5.32025,-0.21092 6.82031,-0.63281 1.49994,-0.46874 2.67181,-1.24217 3.51562,-2.32032 0.89056,-1.12498 1.61713,-2.78904 2.17969,-4.99218 l 8.08594,0 -1.61719,25.17187 -64.40625,0 0,-4.64062 c 1.96874,-4.49999 4.80468,-9.39843 8.50781,-14.69532 3.74998,-5.29685 8.29685,-11.0859 13.64063,-17.36718 5.06246,-5.95309 8.90621,-10.85152 11.53125,-14.69532 2.67183,-3.84369 4.66402,-7.4765 5.97656,-10.89843 1.31245,-3.42181 1.9687,-6.96087 1.96875,-10.61719 -5e-5,-5.15617 -1.14848,-9.18742 -3.44531,-12.09375 -2.29692,-2.95304 -5.43754,-4.4296 -9.42188,-4.42969 -3.75003,9e-5 -6.86721,1.33603 -9.35156,4.00781 -2.43752,2.62509 -4.21877,6.79696 -5.34375,12.51563 l -12.65625,0 0,-16.59375 c 5.71874,-2.29678 10.19529,-3.89053 13.42969,-4.78125 3.23435,-0.93741 6.42184,-1.64053 9.5625,-2.10938 3.18746,-0.46865 6.63277,-0.70302 10.33594,-0.70312 6.89057,10e-5 12.51557,0.93759 16.875,2.8125 4.35931,1.82822 7.49993,4.33603 9.42187,7.52344 1.96868,3.1407 2.95305,6.82039 2.95313,11.03906 -8e-5,3.7032 -0.7032,7.1485 -2.10938,10.33594 -1.35944,3.18756 -3.75006,6.82037 -7.17187,10.89843 -3.37506,4.07818 -9.09381,9.91411 -17.15625,17.50782 -3.60942,3.51565 -6.98442,7.07815 -10.125,10.6875 -3.14066,3.56252 -5.46097,6.35158 -6.96094,8.36718 l 0,0.70313 24.96094,0"
         style=""
         id="path4282" />
    </g>
    <g
       style="font-size:144px;font-style:normal;font-variant:normal;font-weight:bold;font-stretch:normal;text-align:start;line-height:125%;writing-mode:lr-tb;text-anchor:start;fill:#333333;fill-opacity:1;stroke:none;font-family:Cambria;-inkscape-font-specification:Cambria Bold"
       id="text4257">
      <path
         d="m -214.29393,821.94055 c 1.68746,-0.46874 3.0234,-0.96093 4.00781,-1.47656 1.03121,-0.56249 1.80465,-1.28906 2.32031,-2.17969 0.51559,-0.93749 0.84371,-2.1328 0.98438,-3.58594 0.14058,-1.45311 0.2109,-3.28123 0.21094,-5.48437 l 0,-10.47656 -37.6875,0 0,-7.59375 42.67968,-61.03125 15.82032,0 0,59.76562 2.17968,0 c 2.29681,4e-5 3.914,-0.14059 4.85157,-0.42187 0.93743,-0.32809 1.7343,-0.91403 2.39062,-1.75782 0.70306,-0.84371 1.3593,-2.3437 1.96875,-4.5 l 7.38281,0 -0.84375,15.53907 -17.92968,0 0,10.47656 c -6e-5,2.48439 0.11712,4.47657 0.35156,5.97656 0.23431,1.45314 0.63275,2.62501 1.19531,3.51563 0.56244,0.84375 1.33587,1.5 2.32031,1.96875 0.98431,0.42188 2.2265,0.84375 3.72657,1.26562 l 0,4.64063 -35.92969,0 0,-4.64063 m -16.52344,-32.0625 24.04688,0 0,-16.10156 c -4e-5,-6.74994 0.23433,-13.8515 0.70312,-21.30469 l -0.70312,0 -24.04688,36.21094 0,1.19531"
         style=""
         id="path4270" />
    </g>
    <g
       style="font-size:144px;font-style:normal;font-variant:normal;font-weight:bold;font-stretch:normal;text-align:start;line-height:125%;writing-mode:lr-tb;text-anchor:start;fill:#333333;fill-opacity:1;stroke:none;font-family:Cambria;-inkscape-font-specification:Cambria Bold"
       id="text4261">
      <path
         d="m -974.21802,530.79321 0,-17.57812 12.72656,0 c 1.17185,5.10939 3.04685,8.9297 5.625,11.46094 2.5781,2.48438 5.90622,3.72656 9.98438,3.72656 5.10933,0 8.88276,-1.57031 11.32031,-4.71094 2.43745,-3.18748 3.6562,-8.08592 3.65625,-14.69531 -5e-5,-6.51559 -1.57036,-11.48434 -4.71094,-14.90625 -3.14067,-3.42183 -7.68754,-5.13277 -13.64062,-5.13281 -2.29691,4e-5 -4.78128,0.21098 -7.45313,0.63281 -2.62502,0.42192 -4.96877,0.93754 -7.03125,1.54687 l -6.32812,-3.9375 0,-48.02343 41.55469,0 c 1.73431,9e-5 2.99994,-0.1171 3.79687,-0.35157 0.79682,-0.23428 1.45307,-0.63271 1.96875,-1.19531 0.51556,-0.5624 1.07806,-1.59365 1.6875,-3.09375 l 7.73438,0 -1.40625,22.42969 -43.17188,0 0,25.3125 c 2.81247,-0.8437 5.67184,-1.45307 8.57813,-1.82813 2.95308,-0.42182 6.56245,-0.63275 10.82812,-0.63281 5.81245,6e-5 10.89838,1.07818 15.25781,3.23438 4.40619,2.1563 7.80462,5.29692 10.19532,9.42187 2.43742,4.07816 3.65617,8.88285 3.65625,14.41406 -8e-5,6.46877 -1.4532,11.90627 -4.35938,16.3125 -2.90632,4.35939 -7.10162,7.64063 -12.58594,9.84375 -5.48442,2.15625 -12.04692,3.23438 -19.6875,3.23438 -4.9219,0 -9.93752,-0.49219 -15.04687,-1.47656 -5.10939,-0.98438 -9.4922,-2.32031 -13.14844,-4.00782"
         style=""
         id="path4273" />
    </g>
    <g
       style="font-size:144px;font-style:normal;font-variant:normal;font-weight:bold;font-stretch:normal;text-align:start;line-height:125%;writing-mode:lr-tb;text-anchor:start;fill:#333333;fill-opacity:1;stroke:none;font-family:Cambria;-inkscape-font-specification:Cambria Bold"
       id="text4265">
      <path
         d="m -1077.8486,10.880264 0,-16.6640622 c 11.8593,-5.0624058 22.6171,-7.5936528 32.2734,-7.5937498 5.7656,9.7e-5 10.8515,0.796971 15.2578,2.390625 4.4531,1.5938429 7.875,3.9375906 10.2656,7.0312498 2.4375,3.04695962 3.6562,6.7500809 3.6563,11.109375 -10e-5,3.9844472 -0.797,7.5000692 -2.3906,10.5468752 -1.5939,3.000063 -3.8438,5.62506 -6.75,7.875 -2.8595,2.250056 -6.586,4.453178 -11.1797,6.609375 l 0,0.632812 c 4.078,0.703175 7.7812,2.062549 11.1094,4.078125 3.3749,2.01567 6.0468,4.71098 8.0156,8.085938 2.0155,3.375035 3.0233,7.289094 3.0234,11.742187 -10e-5,5.437522 -1.336,10.289079 -4.0078,14.554688 -2.6251,4.218758 -6.6329,7.54688 -12.0234,9.984375 -5.3907,2.390625 -11.9298,3.585936 -19.6172,3.585937 -5.2969,-10e-7 -10.5,-0.46875 -15.6094,-1.40625 -5.1094,-0.984373 -9.5625,-2.343747 -13.3594,-4.078125 l 0,-17.648437 12.6563,0 c 1.3593,5.343766 3.2812,9.234388 5.7656,11.671875 2.4843,2.390633 5.7422,3.585944 9.7734,3.585937 9.9375,7e-6 14.9062,-6.140612 14.9063,-18.421875 -10e-5,-6.609343 -1.7579,-11.531213 -5.2734,-14.765625 -3.4688,-3.234332 -8.7657,-4.851517 -15.8907,-4.851562 l -5.5547,0 0,-8.015625 c 8.1563,-0.328072 14.3438,-2.226508 18.5625,-5.695313 4.2187,-3.515563 6.3281,-8.578058 6.3282,-15.1875 -10e-5,-5.2030458 -1.0548,-9.11710441 -3.1641,-11.7421872 -2.1094,-2.6717869 -5.1797,-4.0077231 -9.2109,-4.0078125 -2.2969,8.94e-5 -4.4298,0.5157139 -6.3985,1.546875 -1.9219,0.9844619 -3.6562,2.7422726 -5.2031,5.2734375 -1.5,2.4844551 -2.6016,5.7422644 -3.3047,9.7734372 l -12.6562,0"
         style=""
         id="path4276" />
    </g>
  </g>
  <g
     inkscape:groupmode="layer"
     id="layer3"
     inkscape:label="nomos"
     transform="translate(1345.2571,251.93315)">
    <path
       id="path3835"
       style="fill:#9ec7f3;fill-opacity:1;stroke:none;display:inline"
       d="m 3.933489,918.52729 -1.911154,2.70102 8.280992,0.82223 1.644452,2.46667 4.169861,2.52541 -0.822226,5.75559 3.288904,4.93335 -0.822226,5.81432 4.933357,0.82222 1.703182,7.45877 3.230174,2.46668 -1.585721,4.93335 -4.169861,2.52541 -3.288905,-0.88096 0.822226,3.28891 3.288905,6.63654 3.347635,1.64445 -0.822227,5.81431 -3.347634,7.40004 4.169861,8.281 1.585721,14.8588 -5.755582,1.6444 -3.288905,-1.6444 -4.11113,6.6365 -1.703183,5.7556 0.880956,5.7556 4.111131,0.881 0.822226,5.7555 5.814313,1.6445 -1.703182,-3.2889 5.755582,-4.1111 2.525409,4.1111 -2.525409,4.9333 -0.822226,8.281 3.347635,0.8223 3.347635,5.7555 -2.055565,3.4064 59.31774,0 0,-696.71917 -1.23334,-0.23492 -2.40795,1.76191 -4.81589,-0.5873 -5.4032,-2.40795 -1.23334,-4.81589 -2.40795,-0.58731 -2.40795,-1.82064 -2.99525,0 0,-3.58256 7.81115,-2.99525 1.82064,-2.99525 -1.23334,-7.28258 -2.40795,-4.75716 -4.22859,-3.05399 0.64604,-2.99525 -2.40795,-2.99525 -5.4032,0 -3.64129,3.58256 -5.9905,0 -7.81115,7.86988 -6.04923,0.5873 -2.99526,3.64129 -1.233336,2.99525 -2.936522,1.76191 -3.641287,0 -1.233339,1.82065 0.646035,3.64128 -4.228591,1.76192 -0.587305,-2.99526 1.174609,-4.81589 -1.820644,-5.4032 2.407948,-3.58256 -4.757165,-7.28257 -6.636539,-5.4032 -2.995253,-12.62705 -2.995252,-13.80165 -7.223844,-15.68103 -7.869878,-9.57306 -16.796905,-0.64603 -9.631791,-2.34922 -13.273079,0 -2.995252,-1.82064 1.233339,-3.64129 2.995252,-2.99525 -3.641287,-5.99051 -10.219096,-7.22384 -7.811148,-0.64604 -2.407947,1.87938 -5.990505,-3.05398 -11.452435,-0.58731 7.223844,5.99051 12.627043,-0.58731 6.049235,6.04924 5.4032,5.4032 -1.820643,2.40794 -7.223844,-4.22859 -5.990504,-2.40794 -4.815896,0 -6.636539,-3.58256 -4.815896,-3.05398 -17.442943,5.9905 -8.98575,3.05398 -7.22385,0 -7.22384,8.39846 -4.22859,9.63179 -5.4032,0 -4.22859,-4.22859 -0.58731,-5.4032 -4.81589,-0.58731 -2.40795,0.58731 -5.99051,-7.81115 -1.82064,0 -1.82064,-4.8159 -4.8159,-1.76191 0.64604,2.40795 -5.46193,1.17461 -4.75717,-4.2286 0,-4.22859 6.57781,-4.16986 0.5873,-7.22384 -4.75716,-5.99051 -4.8159,2.40795 -6.63654,-10.27782 -7.22384,-11.39371 -2.99525,-1.82064 -6.04924,-0.58731 -0.1761,-4.11113 3.34764,-1.9381 6.46035,0.64603 4.22859,-3.05398 -9.04449,-14.38896 -8.39845,-7.22384 -9.63179,-5.99051 -8.98576,-0.64603 -8.45718,1.82064 -9.63179,3.58256 -8.98576,0.64604 -7.22384,6.5778 -9.6318,3.64129 -6.69526,6.1667 -4.75717,5.81431 -0.5873,4.22859 -2.7016,4.63971 -0.99842,6.40161 0.93968,5.69686 0.88096,5.75558 3.70002,3.99367 -1.23334,3.58255 3.64129,9.6318 7.16511,5.9905 1.40953,6.93019 2.70611,7.88206 3.11696,13.28541 2.2994,6.8982 -5.72294,6.84711 -4.59881,9.19759 -4.59879,6.84711 0,11.49699 10.32175,13.74529 8.02235,8.02236 5.72294,6.8982 0,4.54771 -2.2994,4.59879 1.17525,8.02235 3.42356,5.72296 -2.29941,8.02235 4.59881,5.72294 5.72293,5.77406 5.72296,6.8471 4.59881,5.72294 5.72294,4.59881 -8.02235,9.1976 -5.72294,6.84709 -4.59881,6.89821 -2.2994,10.32174 1.17525,6.84711 5.72296,6.8982 9.1465,0 4.59879,0 4.59881,5.72294 3.42354,6.8982 3.42356,6.84711 5.77404,10.32175 9.1465,9.1976 2.29939,4.5477 -1.12414,8.02234 4.54771,2.29941 3.47464,9.1976 6.8471,2.2994 4.59879,4.54769 -2.29939,4.59881 -2.2994,0 -3.42356,1.12414 3.42356,4.59881 5.72296,3.42355 10.32175,6.8982 -5.72296,5.72294 0,4.59881 3.42354,4.59879 2.29942,2.29941 1.17525,3.42355 3.42354,5.72295 1.12415,9.1465 3.47466,2.2994 5.72294,3.47464 -3.42355,8.02235 -1.17525,4.54771 1.17525,4.59879 4.54769,4.59881 5.72296,0 4.59881,3.42354 4.59879,1.17525 3.42354,1.12415 2.29942,4.59881 -1.12415,4.54769 -2.29942,3.47466 -4.59879,2.2994 -1.12414,6.8471 3.42354,2.2994 3.42354,4.59879 3.47466,6.8471 3.42355,1.17525 5.72295,0 3.42355,-1.17525 0,6.8982 1.17524,4.59879 4.54771,5.72296 4.59879,4.59881 2.29942,4.54769 2.299393,8.02235 3.423543,6.89821 0,4.59879 1.175247,5.72296 0,6.8982 0,6.84709 3.423562,3.42356 5.722938,-2.24832 4.598809,5.72296 2.299396,3.42354 -2.299396,4.59881 -1.175247,2.2994 0,6.8471 -2.248314,5.72296 -3.474643,2.29939 -3.423543,11.497 0,4.54771 -1.124148,13.74529 -2.299414,5.77405 -1.175247,8.02236 -1.124148,8.02233 0,6.8471 0,9.1976 2.299395,5.72296 3.423562,5.72296 5.722938,5.72294 3.423562,3.47464 3.474643,3.42356 3.423542,2.2994 9.146519,2.29939 6.898185,0 2.299396,-5.77404 0,-5.72295 1.124166,-3.42355 1.175248,-3.42356 5.722938,5.72296 2.299414,-1.17525 3.423543,3.47464 4.59879,0 3.423562,-3.47464 3.423542,-3.42354 1.175248,-1.12417 4.598809,3.42356 3.423543,6.89819 0,4.54771 -4.59879,3.47464 0,2.24831 -2.299396,5.77404 0,3.42356 8.022334,0 -2.248295,6.89819 2.248295,3.42356 4.598809,0 2.299395,0 3.423562,6.84711 4.59879,1.17524 4.598791,0 4.547709,1.12415 1.175248,0 -1.175248,9.1976 2.299395,3.42354 0,6.89821 -4.54769,2.24829 -4.598809,0 -3.423543,-3.42354 -2.299395,-3.42356 -3.474662,0 -2.248295,1.12417 1.124147,4.59879 2.299395,4.59881 3.423562,3.42354 1.175248,4.59879 0,3.42356 3.423543,2.2994 2.299395,4.5988 3.423561,5.72294 z"
       sodipodi:nodetypes="cccccccccccccccccccccccccccccccccccccccccccccccccccccccccccccccccccccccccccccccccccccccccccccccccccccccccccccccccccccccccccccccccccccccccccccccccccccccccccccccccccccccccccccccccccccccccccccccccccccccccccccccccccccccccccccccccccccccccccccccccccccccccccccccccccccccccccccccccccccccccccccccccccccccccccccccc" />
    <path
       style="fill:none;stroke:#333333;stroke-width:3;stroke-linecap:butt;stroke-linejoin:miter;stroke-miterlimit:4;stroke-opacity:1;stroke-dasharray:none;display:inline"
       d="m -263.67272,259.87704 -7.30699,7.30697 -7.81795,3.32136 -7.81797,5.62075 -3.32134,8.94212 -3.37246,8.891 -3.32134,4.44551 -7.86907,10.06627 0,3.37244 0,8.89102 2.24831,10.06626 -4.44551,10.01517 -6.6938,-3.32137 -7.81797,-4.4455 -7.81795,1.07306 -8.94212,-1.07306 -8.9421,0 -8.89102,6.6938 -3.37246,5.56967 -6.6427,7.81796 -3.37246,0 -6.69381,0 -11.13931,0 -13.43871,0 -11.13931,-3.37247 -3.32136,-5.56965 -3.37245,-11.13931 -3.37246,-6.69381 -1.22634,-4.34331 -0.97085,-3.47464 -1.12417,-8.94212 -6.6938,-6.6938 -10.06627,-4.49661 -8.9421,0 -11.13931,5.62076 -16.70897,-8.94212 c 0,0 -3.35413,-4.44551 -7.81797,-4.44549 -4.46387,0 -5.62075,-6.6938 -5.62075,-6.69382 0,0 0.0169,-2.22992 2.24831,-6.69381 2.23193,-4.46389 -2.24831,-5.62077 -2.24831,-5.62075 l -2.1972,-3.32135 -2.24831,-5.56965 0,-5.56966 2.24831,-6.74492 5.56966,-13.38761 3.37244,-10.01516 2.19721,-7.81796 4.49661,-7.81797 5.21198,-13.5409 0.35768,-0.97085 -3.37246,-5.56966 -5.56966,-4.44551 -3.32136,-2.24831 -6.7449,-7.81795 -6.69381,-5.56966 -8.89102,-6.6938 -5.56965,-8.94212 2.19721,-5.56966 0.97085,-1.27744 5.72296,-7.66465 2.24829,-10.06627 -5.56966,-1.07305 -5.56965,-2.24831 -10.06625,0 -2.24831,-4.44551 -4.44551,-8.9421 -3.32134,-6.6938 -2.24832,-5.56966 0,-7.817968 0,-5.569657 -5.62075,-14.511774 -2.1972,-6.693804 1.12415,-5.620756 0,-16.708969 -6.6938,-7.817951 -3.37247,-3.372454 -6.6938,-10.015165 -7.40917,-12.672243 -0.40878,-0.715365 -3.32136,3.321362 c 0,0 -4.4537,4.478228 -5.56966,8.942098 -1.11597,4.463927 -4.49659,4.44549 -4.49661,4.445509 l -3.32134,4.496609 -8.94212,5.569649 -8.9421,1.124147 -7.81797,4.445509 -1.12414,-6.693804 0,-3.321353 -6.69381,-7.817952 1.12415,-4.445508 0,-7.869071 -4.44551,-7.766851 -2.24829,-7.8179513 0,-5.5696563 0,-6.7449224 0,-7.766852 2.24829,-7.817951 3.32136,-6.693822 6.69381,-6.693804 -4.44551,-10.066266 -3.32136,-8.942098 2.19721,-8.891018 2.24829,-4.445509 7.81797,-8.993199 -5.62075,-5.569656 -7.76687,-6.642722 -2.2483,-6.744901 1.12415,-6.69381 -4.44551,-6.6938 -2.24829,-3.32136 -3.32136,-8.9421 -3.01476,0.76646 -6.13174,-1.99281 -6.13174,1.02195 c 0,0 -4.58975,-0.008 -9.55529,0.51098 -1.28457,0.13381 -2.56256,0.29937 -3.83232,0.51098 -6.1779,1.02966 -6.18282,3.11698 -6.18282,3.11696 l -5.16089,6.18283 -11.3437,0 -7.20479,-1.07305 -5.16087,0 -2.04391,-1.99281 -1.02195,-3.11697 -2.04382,-3.11696 -4.13894,-7.20478 -1.02201,-5.10979 -1.022,-5.16088 -10.32171,-3.11696 -1.022,-3.06586 -1.02201,-4.13893 -6.18276,-9.2487 -4.08783,-4.0878 -4.13894,-2.09502 -4.13895,-3.11696 -14.40953,-1.99281 -7.20477,0 -8.22677,-1.07307 -4.85424,0 -0.35764,-0.25548 -10.37283,0 -10.32171,2.3505 -4.59883,4.59881 -4.59883,5.77403 -3.42365,0 -8.07342,1.17525 -6.89824,0 -6.89806,2.2994 -6.94936,5.77405 -5.72288,5.77406 -4.59883,5.77404 -5.72307,8.12455 -4.64975,9.1976 -6.84713,11.5481 -4.59883,-3.42356 -4.64994,-2.3505 -8.0223,-5.77404 -12.67224,-1.12416 -2.2483,1.12416 -4.59882,2.3505 -2.29942,-4.64991 -5.774,-4.64989 -3.42365,-5.77404 -8.07342,-4.59881 2.29941,-3.42354 0,-3.52577 -2.29941,-8.07343 -3.42347,-1.17525 -5.774,0 -6.89824,2.3505 -9.19766,0 -2.29941,3.42354 -4.59883,4.64991 -5.774,5.77404 -8.07341,3.47464 -7.97137,3.47466 -1.83934,1.78842 -2.81042,2.81037 -3.42365,8.12456 -3.42347,4.59879 -5.774,3.47464 -3.47478,3.47466 -1.12405,4.59879 -1.17536,6.94931 -5.77401,-2.3505 -8.0223,-4.59881 -5.7231,-2.29939 -6.9491,-2.2994 -6.8472,0 -4.5988,0 -5.774,0 -6.8982,-2.35049 -2.2994,-3.42356 -3.4235,-6.94929 -4.5988,0 -4.5989,0 -4.5988,0 -9.2486,1.17525 -5.723,-3.47466 -4.5989,-3.47465 -2.2994,-4.59879 -2.2994,-5.77405 -6.8981,-4.6499 -4.5988,-2.35049 -3.4746,-2.29942 -3.4236,-4.59879 -9.1977,-3.47464 -1.124,1.17525 -5.774,4.59879 -1.1754,3.47466 -6.8982,0 -1.1241,-2.29941 -2.3505,-2.3505 -3.4235,-5.77404 -4.5988,-4.59881 -5.7231,-2.35049 c 0,0 -3.0077,-1.20282 -6.387,-2.2994 -1.328,-0.43088 -2.6883,-0.79813 -3.9858,-1.12414 -4.5996,-1.15569 -2.2994,-3.47468 -2.2994,-3.47467 l -3.4235,-3.47464 -2.3505,-3.47464 -3.3724,-5.77406 0,-5.77404 1.1241,-3.47464 2.2483,-5.77406 -1.1241,-10.42394 -4.0367,-6.02954 0.1541,-1.99282 -1.2774,-0.35768 -4e-4,-5e-5 -0.051,0.25548 -6.183,2.04391 -6.796,2.29941 -9.0952,4.54769 -11.3437,5.67186 -6.796,3.37244 -6.796,5.67186 -3.3726,3.42356 -9.0954,11.2926 -4.5477,4.54771 -12.4678,7.92015 -7.9202,3.42356 -3.3723,6.79598 -2.2995,6.79601 -3.3725,3.37246 -0.8686,1.99281 -2.5549,5.97844 -2.2483,4.49661 -3.4236,6.8471 -4.5477,7.92016 -1.1241,5.67183 1.1241,6.79601 2.2994,9.04432 -1.1752,6.796001 0,4.54769 -2.2483,5.671857 1.1241,6.847104 0,5.620756 0,5.671857 0,6.796004 0,6.796004 2.2994,4.547691 2.2483,9.095399 2.2483,10.117366 3.4236,12.518961 2.2994,7.9201512 3.3724,9.09539944 0,12.41676036 0,10.219547 -2.1461,8.482235 -0.1014,0.613165 -2.2995,7.920144 -1.124,7.92017 -3.4237,7.920152 -2.2483,7.971252 -3.4234,6.796004 -2.2483,9.095399 -2.2483,6.744904 -1.1754,6.796005 4.5477,9.095402 -3.3723,5.67185 -3.4237,7.92016 -1.1242,9.09539 -1.1241,4.49661 2.2483,4.54771 2.2483,6.79601 0,4.54769 -1.1242,4.54771 0.9197,4.49659 0.2045,1.17526 5.672,2.2483 4.5475,-2.2483 4.5479,-2.29941 6.796,-3.37244 6.796,-4.54771 4.4966,0 2.2994,-3.42355 4.5477,-7.92015 4.5477,1.12415 4.4966,3.37244 4.5477,-1.12414 3.4235,-2.2483 10.1685,-1.63513 0.9707,0.45988 2.4017,1.17525 5.6719,3.37244 7.9712,-4.49659 6.796,2.2483 4.5477,5.67185 5.6718,7.97126 4.5477,6.796 -2.2994,9.0443 3.4236,4.49661 4.4966,3.42354 1.1243,4.54771 0,7.92015 6.796,2.2994 4.5475,5.67185 1.1242,6.79601 1.1752,1.12415 4.4966,4.4966 6.8471,3.42355 10.1686,3.37246 9.0442,3.42354 7.9712,3.37246 2.2483,5.72294 4.5477,4.49661 6.796,9.0954 4.5477,7.92015 7.9203,4.49661 10.1683,3.42356 5.672,6.79601 10.2195,13.64309 -4.4966,1.12414 -5.7229,3.42356 -6.796,3.37245 -4.5477,6.74492 -4.4966,5.67184 -3.4237,4.54771 -6.7449,3.42354 -0.8686,0.61318 2.9127,0.66427 0.613,1.32855 -0.8686,0.40878 -4.4966,3.37244 -3.3724,4.49661 -6.7449,3.42354 0,5.62076 3.3724,4.49661 5.6208,5.67186 1.1241,3.37244 3.3725,5.67185 13.5409,0 2.2483,7.92016 3.3725,7.86907 3.4235,4.49659 7.8691,2.24831 -4.4966,9.0443 -3.3725,8.9932 3.3725,6.796 4.4966,11.24152 -7.8691,14.66506 -3.4235,10.16846 -5.6208,7.86906 -0.6644,2.35049 0.2045,0.0511 -1.533,5.46746 -8.9932,4.49661 -9.0443,3.37246 -3.3723,6.796 4.4966,10.16845 7.92,7.92015 5.6209,6.7449 0,6.74493 10.1172,5.67183 5.6719,5.62076 3.3724,4.49661 8.9934,3.37244 6.796,4.54771 3.3723,6.7449 3.3726,4.49661 6.796,3.42355 6.7448,5.62075 4.4966,10.11737 -2.2483,9.0443 -0.6643,1.32855 0.051,0 -1.635,3.16806 -6.7449,12.41676 2.2483,6.7449 -2.044,7.15369 -0.2043,0.76646 5.6206,5.62076 3.3726,7.92015 3.3725,9.0443 4.5475,0 6.7451,5.62076 4.4966,3.42356 10.1683,3.37244 9.04433,1.12415 5.67195,6.7449 2.55482,3.27026 -0.511,20.54132 2.45277,2.14609 2.2483,4.49661 6.74488,3.37246 7.92006,3.37244 7.86913,-2.24829 7.92024,2.24829 6.74489,4.54771 4.49659,6.74491 2.29941,7.92015 0,8.9932 2.2483,3.37246 5.62064,6.796 6.74489,4.49661 6.796,3.37245 -2.24829,6.7449 0,9.04432 2.14624,6.5405 0.10149,0.2555 11.29259,5.62076 11.24148,1.17525 6.796,2.24829 5.62064,3.37244 4.49678,3.37246 4.49659,10.16847 -1.12424,6.7449 -1.12405,5.67184 2.24829,6.74491 5.67177,5.56967 0,0.0511 10.16854,1.12417 6.796,0 3.78111,-7.00041 4.49659,-5.62075 1.12424,-4.5477 4.54771,-2.24831 4.49659,-3.37244 1.83954,-1.99281 -1.12425,-5.62076 -1.12405,-4.54771 4.49659,0 5.62064,3.42356 5.67195,3.37244 4.49659,-4.54769 3.37254,-4.49661 11.2926,-3.37246 8.22658,0 1.7886,-1.94171 -0.71548,-6.5916 0.91977,-5.16088 0,-10.21956 -3.42347,-6.79601 -4.49659,-7.92015 -1.12424,-4.54769 -6.79601,-7.92017 -3.32141,-6.6938 -1.07294,-2.91256 0.97089,-3.98563 2.29941,-10.21956 -4.59883,-6.74491 c 0,0 -1.8104,-6.30691 -4.59883,-10.88383 l -3.83242,-13.64309 0.86865,-18.24192 -1.4817,-4.44551 0,-3.83232 -2.24829,-6.7449 0.10148,-0.35769 2.09494,-7.35808 4.90536,-2.50378 1.58412,0 16.24907,6.796 8.5333,3.62793 0.7664,-0.56207 0.86865,0.30659 3.42366,-2.2483 6.33612,-5.41637 5.21188,-3.62795 12.8256,-8.02233 2.75929,-0.71538 2.29942,0.76646 5.67176,5.72296 4.54771,5.62075 5.16095,12.31456 0.86865,14.66506 -1.48189,5.87626 1.83953,0.51096 0.25559,4.54771 25.5999,6.6427 6.796,2.6571 0.66436,2.65708 3.98559,1.58403 2.60594,3.01476 6.48942,4.85429 0.15336,0.66428 0,2.1461 -1.94172,5.87624 -5.67176,9.04431 4.34323,1.22635 -0.0507,0.15336 0.81753,2.5038 8.68664,1.32854 3.16807,1.58403 7.97126,2.2483 1.07304,0 6.43833,2.24829 0.86866,-0.15335 7.35807,-1.48183 3.11696,-1.68623 0.40878,-0.0511 0.2555,-0.30658 6.94929,-3.73015 4.19003,-22.38082 1.12414,-2.2483 1.12415,-0.81756 4.49661,9.0954 2.2483,9.09539 5.67185,9.04432 2.5038,1.22633 2.65708,3.57685 6.18282,0.81756 6.23394,0.81757 1.22634,-0.81757 2.75928,0 0.86867,-2.4016 2.60597,-1.68621 3.32137,-10.78163 -2.2994,-10.27066 0,-3.11696 -1.22635,-3.83233 -0.61318,-5.92734 4.13893,-7.46029 9.86186,-11.54809 0,-7.05149 0.30658,-2.75928 -0.30658,-0.56208 0,-1.83951 0,-0.20438 -3.67904,-4.75211 -2.81038,-5.10978 -2.81038,-2.09499 -8.58442,-12.46786 -0.30658,-0.56208 -4.49661,-12.57005 -1.94171,-10.78163 -1.12415,-6.796 -2.09501,-6.94931 -1.07305,-11.54809 -3.32136,-7.40917 2.5038,-4.95649 5.77403,-4.95647 9.96407,-3.37247 4.95649,0.86867 3.67903,6.5916 3.52576,3.52577 0.20438,0.61316 1.02197,0.61316 0.91974,0.91977 0.35769,-0.15336 1.83953,1.12415 11.59919,-6.59162 4.54769,-0.35768 4.34331,1.43074 4.80319,1.89062 1.94171,2.50379 2.29942,4.64989 0.10224,0.0511 0.97086,2.1972 11.19042,3.88342 1.37962,0.66429 10.16847,3.37244 3.01476,-3.01476 12.26348,-7.35809 22.53411,0 0.71536,0.2044 9.04432,5.67186 5.67184,5.67184 0.97086,0.97086 0.40879,1.63513 0.35768,1.53293 5.31417,2.65708 4.80319,4.03673 0.61317,7.61357 0,3.06586 2.29939,4.54771 3.37246,7.92015 2.09502,1.68623 0.56206,1.53293 2.19722,0.61318 0.81756,0.66427 0.61317,-0.25549 2.14611,0.61317 20.69459,-9.86187 1.17525,-0.2044 2.5549,0.66429 3.11696,-1.53295 3.88342,-0.61317 13.28543,-4.95649 3.16806,0 3.83233,1.68623 5.21197,6.89821 1.53293,3.06586 3.37246,7.97125 0,6.54052 -2.29939,5.97844 -4.49661,6.6938 0,10.16847 0,7.97125 0,2.1461 -2.91258,4.59881 2.91258,3.98562 0,1.73731 c 0,0 2e-5,4.51159 0,9.04432 0,4.53269 2e-5,5.72296 0,5.72294 l 2.04391,6.18284 0,1.43073 2.81038,3.11696 4.19001,6.23394 -1.12415,4.54769 0,2.24831 2.40159,2.86148 0,2.45268 5.00758,5.36527 5.67185,5.92734 2.81038,4.95649 -1.12414,5.62076 1.12414,3.42354 3.21916,2.4016 1.63513,2.75928 0.81757,5.00757 -3.42354,6.8471 4.54769,10.16847 0,3.42354 -5.67186,4.49661 2.29941,4.54771 3.37245,5.67184 2.86148,2.40159 0.86866,1.48185 3.06586,3.47465 0,1.73731 2.2483,6.74492 2.09501,2.095 1.32855,1.32854 1.12415,5.67186 0.66426,1.27745 1.73733,3.52574 0.10224,1.37963 0.86866,0.56208 0.0511,0.0511 2.19722,2.2994 7.97125,4.49661 3.42354,6.796 4.49661,9.0443 0.66427,0.35768 0.2044,0.40879 9.81076,5.62075 1.78843,2.65708 3.37244,7.97125 1.17525,4.54771 2.24832,5.67186 5.72293,6.796 4.49661,3.37244 7.92015,5.67186 -3.37244,3.42354 -4.54771,6.79601 -7.92015,4.54771 -4.54771,7.92015 -2.29939,3.37246 -2.2483,7.92015 0,2.2483 -0.0511,0.10223 0.0511,0.10224 0,3.27024 2.2483,5.62076 2.50379,1.22635 0.97085,2.14611 5.51857,3.83233 2.4016,4.13892 2.2483,3.37245 2.24829,5.67185 3.32136,5.31418 2.3505,3.78122 3.42356,4.08783 3.32134,4.54771 2.19721,-1.02197 1.22635,0.3066 13.64309,-6.796 0.56209,-0.40878 3.06586,-1.17525 0.71538,-1.63513 0.20438,-0.15336 4.49661,-6.8471 4.54769,-7.92015 3.27026,-3.32137 0.0511,0 11.13931,-5.21197 2.81038,0.45988 3.52574,2.29942 3.01478,2.40159 4.49659,4.49659 5.67186,6.79601 2.70818,1.94171 2.96368,4.24113 6.02954,4.19001 0.76646,0.97086 1.53293,0.61317 0.30658,0.10223 3.83235,1.58403 0.66426,0.15336 4.24111,1.63513 4.13893,8.38002 1.17524,5.67185 1.12415,5.67186 1.12415,9.0443 3.21916,1.37965 0,0.25548 0.40878,0.10224 1.02197,0.25548 3.27026,1.43075 6.79599,2.24829 15.07385,5.0076 3.16806,1.73731 14.30738,-0.76647 2.60597,1.94172 1.12417,2.24831 1.12415,5.67184 0,7.97125 3.42354,2.24831 1.43075,-1.94171 4.95647,-4.13893 4.64989,-1.53293 2.5549,0.86867 2.81038,0.25548 4.85429,1.22635 1.43073,-0.56208 2.19721,0.2044 0,-1.07305 0.51097,-0.2044 -0.51097,-1.94171 0,-0.25549 -1.12415,-4.49661 -1.63513,-5.82515 4.44549,-8.8399 1.73733,-2.29942 3.42357,-3.42354 2.24829,-4.49661 6.13174,-4.44551 4.343309,-1.22632 3.781225,-3.21917 2.708178,-1.37964 10.270666,4.5477 2.248295,2.2483 6.796004,4.59879 4.138927,4.85429 0.664265,1.58403 0.664264,-0.10224 1.328549,1.58403 4.496609,-2.29941 0.459864,-0.45986 1.788431,-0.71539 6.080639,-2.45269 5.314155,-0.86865 7.920171,-2.24831 7.920151,-1.12415 6.796005,-2.3505 0.204382,-0.30658 0.817565,-0.2555 0.2044,-1.07305 2.146095,-2.86148 2.248314,-10.16844 0,-0.0511 0.153357,-0.0511 4.445509,-1.07305 3.985626,-3.16806 8.328934,-4.70101 4.1389265,-9.0954 0.1533569,0"
       id="path1948" />
    <path
       sodipodi:nodetypes="cccccccccccccccccccccccccccccccccccccccccccccccccccccccccccccccccccccccccccccccccccccccccccccccccccccccccccccccccccccccccccccccccccccccccccccccccccccccccccccccccccccccccccccccccccccccccccccccccccccccccccccccccccccccccccccccccccccccccccccccccccccccccccccccccccccccccccccccccccccccccccccccccccccccccccccccc"
       d="m 1.933489,918.52729 -1.911154,2.70102 8.280992,0.82223 1.644452,2.46667 4.169861,2.52541 -0.822226,5.75559 3.288904,4.93335 -0.822226,5.81432 4.933357,0.82222 1.703182,7.45877 3.230174,2.46668 -1.585721,4.93335 -4.169861,2.52541 -3.288905,-0.88096 0.822226,3.28891 3.288905,6.63654 3.347635,1.64445 -0.822227,5.81431 -3.347634,7.40004 4.169861,8.281 1.585721,14.8588 -5.755582,1.6444 -3.288905,-1.6444 -4.11113,6.6365 -1.703183,5.7556 0.880956,5.7556 4.111131,0.881 0.822226,5.7555 5.814313,1.6445 -1.703182,-3.2889 5.755582,-4.1111 2.525409,4.1111 -2.525409,4.9333 -0.822226,8.281 3.347635,0.8223 3.347635,5.7555 -2.055565,3.4064 59.31774,0 0,-696.71917 -1.23334,-0.23492 -2.40795,1.76191 -4.81589,-0.5873 -5.4032,-2.40795 -1.23334,-4.81589 -2.40795,-0.58731 -2.40795,-1.82064 -2.99525,0 0,-3.58256 7.81115,-2.99525 1.82064,-2.99525 -1.23334,-7.28258 -2.40795,-4.75716 -4.22859,-3.05399 0.64604,-2.99525 -2.40795,-2.99525 -5.4032,0 -3.64129,3.58256 -5.9905,0 -7.81115,7.86988 -6.04923,0.5873 -2.99526,3.64129 -1.233336,2.99525 -2.936522,1.76191 -3.641287,0 -1.233339,1.82065 0.646035,3.64128 -4.228591,1.76192 -0.587305,-2.99526 1.174609,-4.81589 -1.820644,-5.4032 2.407948,-3.58256 -4.757165,-7.28257 -6.636539,-5.4032 -2.995253,-12.62705 -2.995252,-13.80165 -7.223844,-15.68103 -7.869878,-9.57306 -16.796905,-0.64603 -9.631791,-2.34922 -13.273079,0 -2.995252,-1.82064 1.233339,-3.64129 2.995252,-2.99525 -3.641287,-5.99051 -10.219096,-7.22384 -7.811148,-0.64604 -2.407947,1.87938 -5.990505,-3.05398 -11.452435,-0.58731 7.223844,5.99051 12.627043,-0.58731 6.049235,6.04924 5.4032,5.4032 -1.820643,2.40794 -7.223844,-4.22859 -5.990504,-2.40794 -4.815896,0 -6.636539,-3.58256 -4.815896,-3.05398 -17.442943,5.9905 -8.98575,3.05398 -7.22385,0 -7.22384,8.39846 -4.22859,9.63179 -5.4032,0 -4.22859,-4.22859 -0.58731,-5.4032 -4.81589,-0.58731 -2.40795,0.58731 -5.99051,-7.81115 -1.82064,0 -1.82064,-4.8159 -4.8159,-1.76191 0.64604,2.40795 -5.46193,1.17461 -4.75717,-4.2286 0,-4.22859 6.57781,-4.16986 0.5873,-7.22384 -4.75716,-5.99051 -4.8159,2.40795 -6.63654,-10.27782 -7.22384,-11.39371 -2.99525,-1.82064 -6.04924,-0.58731 -0.1761,-4.11113 3.34764,-1.9381 6.46035,0.64603 4.22859,-3.05398 -9.04449,-14.38896 -8.39845,-7.22384 -9.63179,-5.99051 -8.98576,-0.64603 -8.45718,1.82064 -9.63179,3.58256 -8.98576,0.64604 -7.22384,6.5778 -9.6318,3.64129 -6.69526,6.1667 -4.75717,5.81431 -0.5873,4.22859 -2.7016,4.63971 -0.99842,6.40161 0.93968,5.69686 0.88096,5.75558 3.70002,3.99367 -1.23334,3.58255 3.64129,9.6318 7.16511,5.9905 1.40953,6.93019 2.70611,7.88206 3.11696,13.28541 2.2994,6.8982 -5.72294,6.84711 -4.59881,9.19759 -4.59879,6.84711 0,11.49699 10.32175,13.74529 8.02235,8.02236 5.72294,6.8982 0,4.54771 -2.2994,4.59879 1.17525,8.02235 3.42356,5.72296 -2.29941,8.02235 4.59881,5.72294 5.72293,5.77406 5.72296,6.8471 4.59881,5.72294 5.72294,4.59881 -8.02235,9.1976 -5.72294,6.84709 -4.59881,6.89821 -2.2994,10.32174 1.17525,6.84711 5.72296,6.8982 9.1465,0 4.59879,0 4.59881,5.72294 3.42354,6.8982 3.42356,6.84711 5.77404,10.32175 9.1465,9.1976 2.29939,4.5477 -1.12414,8.02234 4.54771,2.29941 3.47464,9.1976 6.8471,2.2994 4.59879,4.54769 -2.29939,4.59881 -2.2994,0 -3.42356,1.12414 3.42356,4.59881 5.72296,3.42355 10.32175,6.8982 -5.72296,5.72294 0,4.59881 3.42354,4.59879 2.29942,2.29941 1.17525,3.42355 3.42354,5.72295 1.12415,9.1465 3.47466,2.2994 5.72294,3.47464 -3.42355,8.02235 -1.17525,4.54771 1.17525,4.59879 4.54769,4.59881 5.72296,0 4.59881,3.42354 4.59879,1.17525 3.42354,1.12415 2.29942,4.59881 -1.12415,4.54769 -2.29942,3.47466 -4.59879,2.2994 -1.12414,6.8471 3.42354,2.2994 3.42354,4.59879 3.47466,6.8471 3.42355,1.17525 5.72295,0 3.42355,-1.17525 0,6.8982 1.17524,4.59879 4.54771,5.72296 4.59879,4.59881 2.29942,4.54769 2.299393,8.02235 3.423543,6.89821 0,4.59879 1.175247,5.72296 0,6.8982 0,6.84709 3.423562,3.42356 5.722938,-2.24832 4.598809,5.72296 2.299396,3.42354 -2.299396,4.59881 -1.175247,2.2994 0,6.8471 -2.248314,5.72296 -3.474643,2.29939 -3.423543,11.497 0,4.54771 -1.124148,13.74529 -2.299414,5.77405 -1.175247,8.02236 -1.124148,8.02233 0,6.8471 0,9.1976 2.299395,5.72296 3.423562,5.72296 5.722938,5.72294 3.423562,3.47464 3.474643,3.42356 3.423542,2.2994 9.146519,2.29939 6.898185,0 2.299396,-5.77404 0,-5.72295 1.124166,-3.42355 1.175248,-3.42356 5.722938,5.72296 2.299414,-1.17525 3.423543,3.47464 4.59879,0 3.423562,-3.47464 3.423542,-3.42354 1.175248,-1.12417 4.598809,3.42356 3.423543,6.89819 0,4.54771 -4.59879,3.47464 0,2.24831 -2.299396,5.77404 0,3.42356 8.022334,0 -2.248295,6.89819 2.248295,3.42356 4.598809,0 2.299395,0 3.423562,6.84711 4.59879,1.17524 4.598791,0 4.547709,1.12415 1.175248,0 -1.175248,9.1976 2.299395,3.42354 0,6.89821 -4.54769,2.24829 -4.598809,0 -3.423543,-3.42354 -2.299395,-3.42356 -3.474662,0 -2.248295,1.12417 1.124147,4.59879 2.299395,4.59881 3.423562,3.42354 1.175248,4.59879 0,3.42356 3.423543,2.2994 2.299395,4.5988 3.423561,5.72294 z"
       style="fill:none;stroke:#333333;stroke-width:2;stroke-miterlimit:4;stroke-opacity:1;stroke-dasharray:none;display:inline"
       id="path4107" />
  </g>
</svg>
